1,1,Amazonas
2,1,Antioquia
3,1,Arauca
4,1,Atlántico
6,1,Bolívar
7,1,Boyacá
8,1,Cesar
9,1,Córdoba
10,1,Caldas
11,1,Caquetá
12,1,Casanare
13,1,Cauca
14,1,Chocó
15,1,Cundinamarca
17,1,Guainía
18,1,Guaviare
19,1,Huila
20,1,La Guajira
21,1,Magdalena
22,1,Meta
23,1,Nariño
24,1,Norte de Santander
25,1,Putumayo
26,1,Quindío
27,1,Risaralda
28,1,San Andrés y Providencia
29,1,Santander
30,1,Sucre
31,1,Tolima
32,1,Valle del Cauca
33,1,Vaupés
34,1,Vichada
